<svg width="77px" height="58px" viewBox="0 0 77 58" version="1.1" xmlns="http://www.w3.org/2000/svg" xmlns:xlink="http://www.w3.org/1999/xlink">
    <!-- Generator: Sketch 51.3 (57544) - http://www.bohemiancoding.com/sketch -->
    <title>@2xenvelope-alt</title>
    <desc>Created with Sketch.</desc>
    <defs></defs>
    <g id="Login" stroke="none" stroke-width="1" fill="none" fill-rule="evenodd">
        <g id="03-Forgot-Password-Step-2" transform="translate(-687.000000, -336.000000)">
            <g id="Login" transform="translate(452.000000, 156.000000)">
                <g id="box">
                    <g id="envelope-alt" transform="translate(236.000000, 180.000000)">
                        <rect id="Rectangle-path" stroke="#838383" stroke-width="1.5" fill="#F5F6F8" stroke-linecap="round" stroke-linejoin="round" x="0" y="12" width="64" height="44.8"></rect>
                        <polyline id="Shape" stroke="#838383" stroke-width="1.5" stroke-linecap="round" stroke-linejoin="round" points="0 12 32 40.8 64 12"></polyline>
                        <circle id="Oval" fill="#CF8D2E" fill-rule="nonzero" cx="64" cy="12" r="12"></circle>
                        <text id="1" font-family="Roboto-Bold, Roboto" font-size="14" font-weight="bold" fill="#FFFFFF">
                            <tspan x="60.4838867" y="17">1</tspan>
                        </text>
                    </g>
                </g>
            </g>
        </g>
    </g>
</svg>
