<?xml version="1.0" encoding="UTF-8"?>
<svg width="23px" height="32px" viewBox="0 0 23 32" version="1.1" xmlns="http://www.w3.org/2000/svg" xmlns:xlink="http://www.w3.org/1999/xlink">
    <!-- Generator: Sketch 51.3 (57544) - http://www.bohemiancoding.com/sketch -->
    <title>@2xicon/filetype/jpg copy</title>
    <desc>Created with Sketch.</desc>
    <defs></defs>
    <g id="Case-Detail" stroke="none" stroke-width="1" fill="none" fill-rule="evenodd">
        <g id="08-Case-Details" transform="translate(-748.000000, -4976.000000)">
            <g id="Main-Panel" transform="translate(488.000000, 76.000000)">
                <g id="activites" transform="translate(0.000000, 230.000000)">
                    <g id="detail-activity" transform="translate(0.000000, 3947.000000)">
                        <g id="6" transform="translate(93.000000, 675.000000)">
                            <g id="icon/filetype/mp4" transform="translate(167.000000, 48.000000)">
                                <g>
                                    <polygon id="Path" fill="#DBE0E9" points="22.0688476 30.3447266 0 30.3447266 0 0 17.1035156 0 22.0688476 4.96557619"></polygon>
                                    <polygon id="Path" fill="#7E8AA1" points="17.1035156 0 17.1035156 4.96557619 22.0688476 4.96557619"></polygon>
                                    <polygon id="Path" fill="#B53438" points="0 22.0688476 22.0688476 22.0688476 22.0688476 32 0 32"></polygon>
                                    <g id="Group" transform="translate(2.187500, 23.687500)" fill="#FFFFFF">
                                        <path d="M7.74365237,6.65722656 C7.43896487,6.65722656 7.1918945,6.41015625 7.1918945,6.10571288 L7.1918945,0.588378875 C7.1918945,0.283691375 7.43896487,0.036621125 7.74365237,0.036621125 C8.04809569,0.036621125 8.295166,0.283691375 8.295166,0.588378875 L8.295166,6.10571288 C8.295166,6.41015625 8.04809569,6.65722656 7.74365237,6.65722656 Z" id="Path"></path>
                                        <path d="M9.39868163,4.45043944 L7.74365237,4.45043944 C7.43896487,4.45043944 7.1918945,4.20336912 7.1918945,3.89868162 L7.1918945,0.588378875 C7.1918945,0.283691375 7.43896487,0.036621125 7.74365237,0.036621125 L9.39868163,0.036621125 C10.6157226,0.036621125 11.6057129,1.02636719 11.6057129,2.24365237 C11.6057129,3.46069337 10.6157226,4.45043944 9.39868163,4.45043944 Z M8.295166,3.34692381 L9.39868163,3.34692381 C10.0073242,3.34692381 10.5021973,2.85205075 10.5021973,2.24365237 C10.5021973,1.63500975 10.0073242,1.14013675 9.39868163,1.14013675 L8.295166,1.14013675 L8.295166,3.34692381 Z" id="Shape" fill-rule="nonzero"></path>
                                        <path d="M4.98486325,6.65722656 C4.68041994,6.65722656 4.4331055,6.41015625 4.4331055,6.10571288 L4.4331055,2.66625975 L3.25683594,4.72412113 C3.06103513,5.06787113 2.49487306,5.06787113 2.29907225,4.72412113 L1.12280275,2.66625975 L1.12280275,6.10571288 C1.12280275,6.41015625 0.875732437,6.65722656 0.571044937,6.65722656 C0.266601562,6.65722656 0.019287125,6.41015625 0.019287125,6.10571288 L0.019287125,0.588378875 C0.019287125,0.337890625 0.187744125,0.11938475 0.429443375,0.0554199375 C0.671630875,-0.0107421875 0.92578125,0.097900375 1.05004881,0.31469725 L2.77807619,3.33813475 L4.5061035,0.31469725 C4.63012694,0.097412125 4.88403319,-0.0107421875 5.126709,0.0554199375 C5.36840819,0.11938475 5.53662112,0.337890625 5.53662112,0.588378875 L5.53662112,6.10571288 C5.53662112,6.41015625 5.28955075,6.65722656 4.98486325,6.65722656 Z" id="Path"></path>
                                        <path d="M13.8125,3.89868162 C13.7441406,3.89868162 13.6750488,3.88598631 13.6079101,3.85888675 C13.324707,3.74536131 13.1875,3.42480469 13.3005371,3.14184569 L14.4040528,0.383056625 C14.5170899,0.100585938 14.8371582,-0.0373535 15.1210938,0.07592775 C15.4042969,0.189453125 15.5415039,0.51000975 15.4284668,0.79296875 L14.3249512,3.55175781 C14.2385254,3.767334 14.0310059,3.89868162 13.8125,3.89868162 Z" id="Path"></path>
                                        <path d="M17.1228028,3.89868162 L13.8125,3.89868162 C13.5080566,3.89868162 13.2607422,3.65161131 13.2607422,3.34692381 C13.2607422,3.0424805 13.5080566,2.795166 13.8125,2.795166 L17.1228027,2.795166 C17.4274902,2.795166 17.6745606,3.0424805 17.6745606,3.34692381 C17.6745606,3.65161131 17.4274902,3.89868162 17.1228027,3.89868162 Z" id="Path"></path>
                                        <path d="M16.0192871,6.65722656 C15.7148438,6.65722656 15.4677734,6.41015625 15.4677734,6.10571288 L15.4677734,2.24365238 C15.4677734,1.93896488 15.7148438,1.6918945 16.0192871,1.6918945 C16.3239746,1.6918945 16.5710449,1.93896488 16.5710449,2.24365238 L16.5710449,6.10571288 C16.5710449,6.41015625 16.3239746,6.65722656 16.0192871,6.65722656 Z" id="Path"></path>
                                    </g>
                                    <polygon id="Path" fill="#B53438" points="3.31030275 8.82763675 18.7585449 8.82763675 18.7585449 18.7585449 3.31030275 18.7585449"></polygon>
                                    <polygon id="Path" fill="#FFFFFF" points="13.2414551 13.7932129 9.93115237 16 9.93115237 11.5861816"></polygon>
                                </g>
                            </g>
                        </g>
                    </g>
                </g>
            </g>
        </g>
    </g>
</svg>